{
    "data" : [
        {
            "id": 1,
            "category": "General Practitioners"
        },
        {
            "id": 2,
            "category": "Pediatrician"
        },
        {
            "id": 3,
            "category": "Psychiatrist"
        },
        {
            "id": 4,
            "category": "Dokter Obat"
        }
    ]
}